{
  "development": {
    "username": "root",
    "password": "Banfield@@2021!!",
    "database": "childhub",
    "host": "127.0.0.1",
    "dialect": "mysql",
    "SECRET" : "SECRET"
  },
  "test": {
    "username": "root",
    "password": null,
    "database": "database_test",
    "host": "127.0.0.1",
    "dialect": "mysql"
  },
  "production": {
    "username": "root",
    "password": null,
    "database": "database_production",
    "host": "127.0.0.1",
    "dialect": "mysql"
  }
}
